{"aggregations":{"availability":{"buckets":[{"doc_count":45895,"key":"online"},{"doc_count":20136,"key":"partial"}],"doc_count":66040,"doc_count_error_upper_bound":0,"sum_other_doc_count":0},"category":{"buckets":[{"doc_count":219,"key":" Heavy-Ion Physics","subcategory":{"buckets":[],"doc_count_error_upper_bound":0,"sum_other_doc_count":0}},{"doc_count":1234,"key":"2 Fermion","subcategory":{"buckets":[],"doc_count_error_upper_bound":0,"sum_other_doc_count":0}},{"doc_count":379,"key":"4 Fermion","subcategory":{"buckets":[],"doc_count_error_upper_bound":0,"sum_other_doc_count":0}},{"doc_count":504,"key":"B physics and Quarkonia","subcategory":{"buckets":[],"doc_count_error_upper_bound":0,"sum_other_doc_count":0}},{"doc_count":1604,"key":"Beyond 2 Generations","subcategory":{"buckets":[],"doc_count_error_upper_bound":0,"sum_other_doc_count":0}},{"doc_count":41,"key":"EEGG","subcategory":{"buckets":[],"doc_count_error_upper_bound":0,"sum_other_doc_count":0}},{"doc_count":13168,"key":"Exotica","subcategory":{"buckets":[{"doc_count":432,"key":"Contact Interaction"},{"doc_count":1935,"key":"Dark Matter"},{"doc_count":695,"key":"Excited Fermions"},{"doc_count":645,"key":"Extra Dimensions"},{"doc_count":2604,"key":"Gravitons"},{"doc_count":2231,"key":"Heavy Fermions, Heavy Righ-Handed Neutrinos"},{"doc_count":1643,"key":"Heavy Gauge Bosons"},{"doc_count":1211,"key":"Leptoquarks"},{"doc_count":758,"key":"Miscellaneous"},{"doc_count":1014,"key":"Resonances"}],"doc_count_error_upper_bound":0,"sum_other_doc_count":0}},{"doc_count":3,"key":"Heavy-Ion Physics","subcategory":{"buckets":[],"doc_count_error_upper_bound":0,"sum_other_doc_count":0}},{"doc_count":10679,"key":"Higgs","subcategory":{"buckets":[],"doc_count_error_upper_bound":0,"sum_other_doc_count":0}},{"doc_count":10382,"key":"Higgs Physics","subcategory":{"buckets":[{"doc_count":6568,"key":"Beyond Standard Model"},{"doc_count":3814,"key":"Standard Model"}],"doc_count_error_upper_bound":0,"sum_other_doc_count":0}}],"doc_count":66040,"doc_count_error_upper_bound":0,"sum_other_doc_count":25598},"collision_energy":{"buckets":[{"doc_count":4,"key":"0.9TeV"},{"doc_count":1,"key":"0TeV"},{"doc_count":1,"key":"12GeV"},{"doc_count":4,"key":"13.6TeV"},{"doc_count":120,"key":"130-140 GeV"},{"doc_count":50526,"key":"13TeV"},{"doc_count":117,"key":"161-174 GeV"},{"doc_count":11722,"key":"181-210 GeV"},{"doc_count":118,"key":"2.76TeV"},{"doc_count":310,"key":"5.02TeV"}],"doc_count":66040,"doc_count_error_upper_bound":0,"sum_other_doc_count":2001},"collision_type":{"buckets":[{"doc_count":1,"key":"Interfill"},{"doc_count":138,"key":"Pb-Pb"},{"doc_count":52,"key":"PbPb"},{"doc_count":12728,"key":"e+e-"},{"doc_count":139,"key":"pPb"},{"doc_count":51945,"key":"pp"}],"doc_count":66040,"doc_count_error_upper_bound":0,"sum_other_doc_count":0},"experiment":{"buckets":[{"doc_count":153,"key":"ALICE"},{"doc_count":161,"key":"ATLAS"},{"doc_count":51963,"key":"CMS"},{"doc_count":12727,"key":"DELPHI"},{"doc_count":1,"key":"JADE"},{"doc_count":129,"key":"LHCb"},{"doc_count":904,"key":"OPERA"},{"doc_count":1,"key":"PHENIX"},{"doc_count":1,"key":"TOTEM"}],"doc_count":66040,"doc_count_error_upper_bound":0,"sum_other_doc_count":0},"file_type":{"buckets":[{"doc_count":1,"key":"C"},{"doc_count":3,"key":"DAOD_HION14"},{"doc_count":12,"key":"DAOD_PHYSLITE"},{"doc_count":63,"key":"DST"},{"doc_count":279,"key":"DSTO"},{"doc_count":2,"key":"HEPMC"},{"doc_count":284,"key":"LONG"},{"doc_count":36,"key":"MDST"},{"doc_count":1,"key":"NTuple"},{"doc_count":25,"key":"RAWD"},{"doc_count":450,"key":"SHORT"},{"doc_count":11689,"key":"XSHORT"},{"doc_count":207,"key":"aod"},{"doc_count":859,"key":"aodsim"},{"doc_count":931,"key":"csv"},{"doc_count":1,"key":"fevtdebughlt"},{"doc_count":5,"key":"gen-sim"},{"doc_count":1,"key":"gen-sim-digi-raw"},{"doc_count":225,"key":"gen-sim-reco"},{"doc_count":4,"key":"gz"},{"doc_count":6,"key":"h5"},{"doc_count":1,"key":"hdf5"},{"doc_count":95,"key":"ig"},{"doc_count":12,"key":"json"},{"doc_count":51,"key":"miniaod"},{"doc_count":28693,"key":"miniaodsim"},{"doc_count":32,"key":"nanoaod"},{"doc_count":17,"key":"nanoaod-pf"},{"doc_count":2,"key":"nanoaod-poet"},{"doc_count":7,"key":"nanoaod-reduced"},{"doc_count":31,"key":"nanoaod-run1"},{"doc_count":21575,"key":"nanoaodsim"},{"doc_count":56,"key":"nanoaodsim-poet"},{"doc_count":11,"key":"nanoaodsim-reduced"},{"doc_count":3,"key":"nanoaodsim-run1"},{"doc_count":1,"key":"pdf"},{"doc_count":1,"key":"premix"},{"doc_count":5,"key":"py"},{"doc_count":25,"key":"raw"},{"doc_count":36,"key":"reco"},{"doc_count":52129,"key":"root"},{"doc_count":1,"key":"tar"},{"doc_count":2,"key":"tgz"},{"doc_count":1,"key":"txt"},{"doc_count":1,"key":"xls"},{"doc_count":1,"key":"xml"},{"doc_count":4,"key":"yaml"},{"doc_count":16,"key":"zip"}],"doc_count":66040,"doc_count_error_upper_bound":0,"sum_other_doc_count":0},"keywords":{"buckets":[{"doc_count":1,"key":"Education"},{"doc_count":1,"key":"Roman Pot"},{"doc_count":14,"key":"datascience"},{"doc_count":1,"key":"e+e- physics"},{"doc_count":24,"key":"education"},{"doc_count":294,"key":"heavy-ion physics"},{"doc_count":59,"key":"masterclass"}],"doc_count":66040,"doc_count_error_upper_bound":0,"sum_other_doc_count":0},"magnet_polarity":{"buckets":[{"doc_count":61,"key":"MagDown"},{"doc_count":60,"key":"MagUp"}],"doc_count":66040,"doc_count_error_upper_bound":0,"sum_other_doc_count":0},"number_events":{"buckets":[{"doc_count":1181,"from":0.0,"key":"0--999","to":1000.0},{"doc_count":13893,"from":1000.0,"key":"1000--9999","to":10000.0},{"doc_count":19877,"from":10000.0,"key":"10000--99999","to":100000.0},{"doc_count":26933,"from":100000.0,"key":"100000--999999","to":1000000.0},{"doc_count":2827,"from":1000000.0,"key":"1000000--9999999","to":10000000.0},{"doc_count":1278,"from":10000000.0,"key":"10000000--"}],"doc_count":66040},"signature":{"buckets":[{"doc_count":2,"key":"H"},{"doc_count":4,"key":"Jpsi"},{"doc_count":5,"key":"W"},{"doc_count":3,"key":"Y"},{"doc_count":5,"key":"Z"},{"doc_count":9,"key":"electron"},{"doc_count":5,"key":"missing transverse energy"},{"doc_count":12,"key":"muon"},{"doc_count":1,"key":"photon"}],"doc_count":66040,"doc_count_error_upper_bound":0,"sum_other_doc_count":0},"stripping_stream":{"buckets":[{"doc_count":12,"key":"BHADRON"},{"doc_count":18,"key":"BHADRONCOMPLETEEVENT"},{"doc_count":12,"key":"CHARM"},{"doc_count":6,"key":"CHARM.MDST"},{"doc_count":12,"key":"CHARMCOMPLETEEVENT"},{"doc_count":16,"key":"DIMUON"},{"doc_count":18,"key":"EW"},{"doc_count":12,"key":"LEPTONIC"},{"doc_count":3,"key":"RADIATIVE"},{"doc_count":12,"key":"SEMILEPTONIC"}],"doc_count":66040,"doc_count_error_upper_bound":0,"sum_other_doc_count":0},"stripping_version":{"buckets":[{"doc_count":18,"key":"stripping21"},{"doc_count":16,"key":"stripping21r0p1"},{"doc_count":16,"key":"stripping21r0p2"},{"doc_count":17,"key":"stripping21r1"},{"doc_count":16,"key":"stripping21r1p1"},{"doc_count":16,"key":"stripping21r1p2"},{"doc_count":6,"key":"stripping24r2"},{"doc_count":6,"key":"stripping28r2"},{"doc_count":2,"key":"stripping28r2p2"},{"doc_count":4,"key":"stripping29r2"}],"doc_count":66040,"doc_count_error_upper_bound":0,"sum_other_doc_count":4},"type":{"buckets":[{"doc_count":66040,"key":"Dataset","subtype":{"buckets":[{"doc_count":925,"key":"Collision"},{"doc_count":1235,"key":"Derived"},{"doc_count":63895,"key":"Simulated"}],"doc_count_error_upper_bound":0,"sum_other_doc_count":0}},{"doc_count":7262,"key":"Documentation","subtype":{"buckets":[{"doc_count":13,"key":"About"},{"doc_count":20,"key":"Activities"},{"doc_count":13,"key":"Authors"},{"doc_count":44,"key":"Guide"},{"doc_count":3,"key":"Help"},{"doc_count":9,"key":"Policy"},{"doc_count":1,"key":"Report"},{"doc_count":7159,"key":"Stripping"}],"doc_count_error_upper_bound":0,"sum_other_doc_count":0}},{"doc_count":64,"key":"Environment","subtype":{"buckets":[{"doc_count":21,"key":"Condition"},{"doc_count":19,"key":"VM"},{"doc_count":24,"key":"Validation"}],"doc_count_error_upper_bound":0,"sum_other_doc_count":0}},{"doc_count":1006,"key":"Glossary","subtype":{"buckets":[],"doc_count_error_upper_bound":0,"sum_other_doc_count":0}},{"doc_count":32,"key":"News","subtype":{"buckets":[],"doc_count_error_upper_bound":0,"sum_other_doc_count":0}},{"doc_count":55,"key":"Software","subtype":{"buckets":[{"doc_count":25,"key":"Analysis"},{"doc_count":4,"key":"Framework"},{"doc_count":22,"key":"Tool"},{"doc_count":6,"key":"Validation"},{"doc_count":12,"key":"Workflow"}],"doc_count_error_upper_bound":0,"sum_other_doc_count":0}},{"doc_count":5904,"key":"Supplementaries","subtype":{"buckets":[{"doc_count":117,"key":"Computing Note"},{"doc_count":627,"key":"Configuration"},{"doc_count":214,"key":"Configuration HLT"},{"doc_count":242,"key":"Configuration LHE"},{"doc_count":192,"key":"Configuration RECO"},{"doc_count":313,"key":"Configuration SIM"},{"doc_count":1,"key":"Correction"},{"doc_count":32,"key":"Logbook"},{"doc_count":10,"key":"Luminosity"},{"doc_count":7,"key":"Manual"}],"doc_count_error_upper_bound":0,"sum_other_doc_count":4149}}],"doc_count":80373,"doc_count_error_upper_bound":0,"meta":{},"sum_other_doc_count":0},"year":{"buckets":[{"doc_count":1,"key":504921600000,"key_as_string":"1986"},{"doc_count":1,"key":631152000000,"key_as_string":"1990"},{"doc_count":15,"key":662688000000,"key_as_string":"1991"},{"doc_count":81,"key":694224000000,"key_as_string":"1992"},{"doc_count":80,"key":725846400000,"key_as_string":"1993"},{"doc_count":271,"key":757382400000,"key_as_string":"1994"},{"doc_count":161,"key":788918400000,"key_as_string":"1995"},{"doc_count":138,"key":820454400000,"key_as_string":"1996"},{"doc_count":274,"key":852076800000,"key_as_string":"1997"},{"doc_count":1172,"key":883612800000,"key_as_string":"1998"},{"doc_count":6232,"key":915148800000,"key_as_string":"1999"},{"doc_count":4302,"key":946684800000,"key_as_string":"2000"},{"doc_count":69,"key":1199145600000,"key_as_string":"2008"},{"doc_count":77,"key":1230768000000,"key_as_string":"2009"},{"doc_count":1083,"key":1262304000000,"key_as_string":"2010"},{"doc_count":1395,"key":1293840000000,"key_as_string":"2011"},{"doc_count":1505,"key":1325376000000,"key_as_string":"2012"},{"doc_count":238,"key":1356998400000,"key_as_string":"2013"},{"doc_count":7424,"key":1420070400000,"key_as_string":"2015"},{"doc_count":43301,"key":1451606400000,"key_as_string":"2016"},{"doc_count":20,"key":1483228800000,"key_as_string":"2017"},{"doc_count":6,"key":1514764800000,"key_as_string":"2018"},{"doc_count":4,"key":1546300800000,"key_as_string":"2019"},{"doc_count":2,"key":1577836800000,"key_as_string":"2020"},{"doc_count":2,"key":1704067200000,"key_as_string":"2024"}],"doc_count":66040}},"hits":{"hits":[{"created":"2024-12-02T22:50:34.336843+00:00","id":"1120","links":{"self":"https://opendata.cern.ch/api/records/1120"},"metadata":{"$schema":"http://opendata.cern.ch/schema/records/record-v1.0.0.json","_availability_details":{"online":12},"_bucket":"a1649d7a-fb30-4de3-9bcc-59227468cd8b","_file_indices":[],"_files":[{"availability":"online","bucket":"a1649d7a-fb30-4de3-9bcc-59227468cd8b","checksum":"adler32:5af39e35","file_id":"5a86e2ff-d815-49d9-9b98-196b50bbd907","key":"AliVSD_Masterclass_10.root","size":46920005,"tags":{},"uri":"root://eospublic.cern.ch//eos/opendata/alice/masterclass/AliVSD_Masterclass_10.root","version_id":"bd5037f8-6534-4d27-b6d1-f9862d8ee234"},{"availability":"online","bucket":"a1649d7a-fb30-4de3-9bcc-59227468cd8b","checksum":"adler32:6c129d51","file_id":"5345177f-12ae-4de6-ad89-49acf1e14b6b","key":"AliVSD_Masterclass_1.root","size":43359305,"tags":{},"uri":"root://eospublic.cern.ch//eos/opendata/alice/masterclass/AliVSD_Masterclass_1.root","version_id":"7d313f04-c1b7-4bc0-a6f1-e441bf679bbe"},{"availability":"online","bucket":"a1649d7a-fb30-4de3-9bcc-59227468cd8b","checksum":"adler32:c29591ce","file_id":"09cfd07c-2817-4c32-83c3-cd80bcdec4b6","key":"AliVSD_MasterClass_1.root","size":43476399,"tags":{},"uri":"root://eospublic.cern.ch//eos/opendata/alice/masterclass/AliVSD_MasterClass_1.root","version_id":"4aa71a5c-2cac-4fe7-9c38-25d8586b30ca"},{"availability":"online","bucket":"a1649d7a-fb30-4de3-9bcc-59227468cd8b","checksum":"adler32:411f5d1f","file_id":"92af8970-5726-4a19-a88a-1510d21f8aea","key":"AliVSD_Masterclass_2.root","size":40473110,"tags":{},"uri":"root://eospublic.cern.ch//eos/opendata/alice/masterclass/AliVSD_Masterclass_2.root","version_id":"6862451d-7bcb-4521-b7b4-17e900900128"},{"availability":"online","bucket":"a1649d7a-fb30-4de3-9bcc-59227468cd8b","checksum":"adler32:a90bc4fc","file_id":"9aeb1e99-ea15-4b6d-8517-b5d2f6680ddb","key":"AliVSD_Masterclass_3.root","size":46666641,"tags":{},"uri":"root://eospublic.cern.ch//eos/opendata/alice/masterclass/AliVSD_Masterclass_3.root","version_id":"518209b5-dd82-46b2-abe1-dce669111c27"},{"availability":"online","bucket":"a1649d7a-fb30-4de3-9bcc-59227468cd8b","checksum":"adler32:c86a7a09","file_id":"e8f978c9-e6ca-4c75-9139-00c6994cced5","key":"AliVSD_Masterclass_4.root","size":44175305,"tags":{},"uri":"root://eospublic.cern.ch//eos/opendata/alice/masterclass/AliVSD_Masterclass_4.root","version_id":"468b5e97-8f60-47a3-ab6f-a331e7c42e4b"},{"availability":"online","bucket":"a1649d7a-fb30-4de3-9bcc-59227468cd8b","checksum":"adler32:247cb18e","file_id":"88012ffe-9d0b-4e35-aeb9-33380e27f7e8","key":"AliVSD_Masterclass_5.root","size":67736734,"tags":{},"uri":"root://eospublic.cern.ch//eos/opendata/alice/masterclass/AliVSD_Masterclass_5.root","version_id":"9781b5b3-794e-4c8e-ba78-af3e3d490642"},{"availability":"online","bucket":"a1649d7a-fb30-4de3-9bcc-59227468cd8b","checksum":"adler32:13028f32","file_id":"fe89ef9c-086d-49e9-8003-d145c1db1c2e","key":"AliVSD_Masterclass_6.root","size":35379987,"tags":{},"uri":"root://eospublic.cern.ch//eos/opendata/alice/masterclass/AliVSD_Masterclass_6.root","version_id":"bc442ca8-f87a-47af-b7bb-4ff7749633a5"},{"availability":"online","bucket":"a1649d7a-fb30-4de3-9bcc-59227468cd8b","checksum":"adler32:7754fc37","file_id":"46e034e2-f738-4a02-85e3-a88fec2d5141","key":"AliVSD_Masterclass_7.root","size":63455250,"tags":{},"uri":"root://eospublic.cern.ch//eos/opendata/alice/masterclass/AliVSD_Masterclass_7.root","version_id":"ff712538-b029-4246-be07-32eed29e133b"},{"availability":"online","bucket":"a1649d7a-fb30-4de3-9bcc-59227468cd8b","checksum":"adler32:c2e388ce","file_id":"faf24b41-550e-49c1-9c88-fcae1cab18b0","key":"AliVSD_Masterclass_8.root","size":46325793,"tags":{},"uri":"root://eospublic.cern.ch//eos/opendata/alice/masterclass/AliVSD_Masterclass_8.root","version_id":"6959524e-20a3-43a4-9099-8285cf19db22"},{"availability":"online","bucket":"a1649d7a-fb30-4de3-9bcc-59227468cd8b","checksum":"adler32:bb67762d","file_id":"bd95fd64-e3fb-40ff-8972-a1861809a05e","key":"AliVSD_Masterclass_9.root","size":45248227,"tags":{},"uri":"root://eospublic.cern.ch//eos/opendata/alice/masterclass/AliVSD_Masterclass_9.root","version_id":"0c97ccc4-2532-4096-86e6-4af6b3e4315d"},{"availability":"online","bucket":"a1649d7a-fb30-4de3-9bcc-59227468cd8b","checksum":"adler32:0c79ca92","file_id":"892b88b7-cd80-4231-9eb2-adbbda2ea36f","key":"MasterClassesTree_LHC10h_Run139036.root","size":293121910,"tags":{},"uri":"root://eospublic.cern.ch//eos/opendata/alice/masterclass/MasterClassesTree_LHC10h_Run139036.root","version_id":"2e8ab01c-9d91-4fda-b14d-ad80d78f7809"}],"abstract":{"description":"Pb-Pb VSD masterclass data sample at the collision energy of 2.76 TeV per nucleon pair"},"accelerator":"CERN-LHC","availability":"online","collaboration":{"name":"ALICE Collaboration"},"collections":["ALICE-Derived-Datasets"],"date_published":"2012","distribution":{"formats":["root"],"number_events":342,"number_files":11,"size":772862267},"doi":"10.7483/OPENDATA.ALICE.Y62S.E7UR","experiment":["ALICE"],"files":[{"bucket":"a1649d7a-fb30-4de3-9bcc-59227468cd8b","checksum":"adler32:c29591ce","key":"AliVSD_MasterClass_1.root","size":43476399,"uri":"root://eospublic.cern.ch//eos/opendata/alice/masterclass/AliVSD_MasterClass_1.root","version_id":"4aa71a5c-2cac-4fe7-9c38-25d8586b30ca"},{"bucket":"a1649d7a-fb30-4de3-9bcc-59227468cd8b","checksum":"adler32:6c129d51","key":"AliVSD_Masterclass_1.root","size":43359305,"uri":"root://eospublic.cern.ch//eos/opendata/alice/masterclass/AliVSD_Masterclass_1.root","version_id":"7d313f04-c1b7-4bc0-a6f1-e441bf679bbe"},{"bucket":"a1649d7a-fb30-4de3-9bcc-59227468cd8b","checksum":"adler32:5af39e35","key":"AliVSD_Masterclass_10.root","size":46920005,"uri":"root://eospublic.cern.ch//eos/opendata/alice/masterclass/AliVSD_Masterclass_10.root","version_id":"bd5037f8-6534-4d27-b6d1-f9862d8ee234"},{"bucket":"a1649d7a-fb30-4de3-9bcc-59227468cd8b","checksum":"adler32:411f5d1f","key":"AliVSD_Masterclass_2.root","size":40473110,"uri":"root://eospublic.cern.ch//eos/opendata/alice/masterclass/AliVSD_Masterclass_2.root","version_id":"6862451d-7bcb-4521-b7b4-17e900900128"},{"bucket":"a1649d7a-fb30-4de3-9bcc-59227468cd8b","checksum":"adler32:a90bc4fc","key":"AliVSD_Masterclass_3.root","size":46666641,"uri":"root://eospublic.cern.ch//eos/opendata/alice/masterclass/AliVSD_Masterclass_3.root","version_id":"518209b5-dd82-46b2-abe1-dce669111c27"},{"bucket":"a1649d7a-fb30-4de3-9bcc-59227468cd8b","checksum":"adler32:c86a7a09","key":"AliVSD_Masterclass_4.root","size":44175305,"uri":"root://eospublic.cern.ch//eos/opendata/alice/masterclass/AliVSD_Masterclass_4.root","version_id":"468b5e97-8f60-47a3-ab6f-a331e7c42e4b"},{"bucket":"a1649d7a-fb30-4de3-9bcc-59227468cd8b","checksum":"adler32:247cb18e","key":"AliVSD_Masterclass_5.root","size":67736734,"uri":"root://eospublic.cern.ch//eos/opendata/alice/masterclass/AliVSD_Masterclass_5.root","version_id":"9781b5b3-794e-4c8e-ba78-af3e3d490642"},{"bucket":"a1649d7a-fb30-4de3-9bcc-59227468cd8b","checksum":"adler32:13028f32","key":"AliVSD_Masterclass_6.root","size":35379987,"uri":"root://eospublic.cern.ch//eos/opendata/alice/masterclass/AliVSD_Masterclass_6.root","version_id":"bc442ca8-f87a-47af-b7bb-4ff7749633a5"},{"bucket":"a1649d7a-fb30-4de3-9bcc-59227468cd8b","checksum":"adler32:7754fc37","key":"AliVSD_Masterclass_7.root","size":63455250,"uri":"root://eospublic.cern.ch//eos/opendata/alice/masterclass/AliVSD_Masterclass_7.root","version_id":"ff712538-b029-4246-be07-32eed29e133b"},{"bucket":"a1649d7a-fb30-4de3-9bcc-59227468cd8b","checksum":"adler32:c2e388ce","key":"AliVSD_Masterclass_8.root","size":46325793,"uri":"root://eospublic.cern.ch//eos/opendata/alice/masterclass/AliVSD_Masterclass_8.root","version_id":"6959524e-20a3-43a4-9099-8285cf19db22"},{"bucket":"a1649d7a-fb30-4de3-9bcc-59227468cd8b","checksum":"adler32:bb67762d","key":"AliVSD_Masterclass_9.root","size":45248227,"uri":"root://eospublic.cern.ch//eos/opendata/alice/masterclass/AliVSD_Masterclass_9.root","version_id":"0c97ccc4-2532-4096-86e6-4af6b3e4315d"},{"bucket":"a1649d7a-fb30-4de3-9bcc-59227468cd8b","checksum":"adler32:0c79ca92","key":"MasterClassesTree_LHC10h_Run139036.root","size":293121910,"uri":"root://eospublic.cern.ch//eos/opendata/alice/masterclass/MasterClassesTree_LHC10h_Run139036.root","version_id":"2e8ab01c-9d91-4fda-b14d-ad80d78f7809"}],"keywords":["masterclass"],"pids":{"oai":{"id":"oai:cernopendata.cern:1120"}},"publisher":"CERN Open Data Portal","recid":"1120","title":"LHC2010h_PbPb_VSD_139036","title_additional":"Pb-Pb VSD masterclass data sample at the collision energy of 2.76 TeV per nucleon pair (LHC2010h_PbPb_VSD_139036)","type":{"primary":"Dataset","secondary":["Derived"]}},"updated":"2025-06-06T07:22:19.928731+00:00"}],"total":66040},"links":{"next":"https://opendata.cern.ch/api/records/?type=Dataset&sort=mostrecent&size=1&page=2","self":"https://opendata.cern.ch/api/records/?type=Dataset&sort=mostrecent&size=1&page=1"}}